Quantitative Methods - Workshop and Tutorials - Sjekkliste for arbeidskrav og eksamen
…
        pivot_wider(names_from = "time", 
                    values_from = "lean.mass") %>%
        # Calculate change score
        
        mutate(change = post - pre) %>%
        
        # Keep change score and make it wider by sets
        select(participant:sets, change) %>%
        pivot_wider(names_from = sets, values_from = change) %>%
        
  print()

# A tibble: 34 × 5
   participant sex    include multiple single
   <chr>       <chr>  <chr>      <dbl>  <dbl>
 1 FP28        female incl         214    123
 2 FP40        female incl         -69      2
 3 FP21        male   incl         619    189
 4 FP34        female incl         396    312
 5 FP23        male   incl        -205    445
 6 FP36        female incl         587    386
 7 FP38        female incl         -85    225
 8 FP25        male   incl         373    -47
 9 FP19        male   incl         302    127
10 FP13        male   incl         734    915
# ℹ 24 more rows
…
        # Extract leg specific data
  pivot_longer(names_to = "leg", 
               values_to = "lean.mass", 
               cols = lean.left_leg:lean.right_leg) %>%
  mutate(leg = if_else(leg == "lean.left_leg", "L", "R"), 
         sets = if_else(multiple == leg, "multiple", "single")) %>%
  select(participant, time, sex, include, sets, leg, lean.mass) %>%
        # Filter only included participants
        filter(include == "incl") %>%
        # Fix time factor 
        mutate(time = factor(time, levels = c("pre", "post"))) %>%
        
  print()

# A tibble: 136 × 7
   participant time  sex    include sets     leg   lean.mass
   <chr>       <fct> <chr>  <chr>   <chr>    <chr>     <dbl>
 1 FP28        pre   female incl    multiple L          7059
 2 FP28        pre   female incl    single   R          7104
 3 FP40        pre   female incl    single   L          7190
 4 FP40        pre   female incl    multiple R          7506
 5 FP21        pre   male   incl    single   L         10281
 6 FP21        pre   male   incl    multiple R         10200
 7 FP34        pre   female incl    single   L          6014
 8 FP34        pre   female incl    multiple R          6009
 9 FP23        pre   male   incl    single   L          8242
10 FP23        pre   male   incl    multiple R          8685
# ℹ 126 more rows
…
  print()

# A tibble: 68 × 7
   participant sex    include sets     leg     pre  post
   <chr>       <chr>  <chr>   <chr>    <chr> <dbl> <dbl>
 1 FP28        female incl    multiple L      7059  7273
 2 FP28        female incl    single   R      7104  7227
 3 FP40        female incl    single   L      7190  7192
 4 FP40        female incl    multiple R      7506  7437
 5 FP21        male   incl    single   L     10281 10470
 6 FP21        male   incl    multiple R     10200 10819
 7 FP34        female incl    single   L      6014  6326
 8 FP34        female incl    multiple R      6009  6405
 9 FP23        male   incl    single   L      8242  8687
10 FP23        male   incl    multiple R      8685  8480
# ℹ 58 more rows
…
