Quantitative Methods - Workshop and Tutorials - IDR4000 Portfolio exam - 2022
…
To get and overview of the variables in each data set use ?strengthvolume and ?dxadata. In the dxadata the variables of interest are organized in a more convenient way using the code below:

library(tidyverse)

dxadata %>%
  select(participant:include, lean.left_leg, lean.right_leg) %>%
  pivot_longer(names_to = "leg", 
               values_to = "lean.mass", 
               cols = lean.left_leg:lean.right_leg) %>%
  mutate(leg = if_else(leg == "lean.left_leg", "L", "R"), 
         sets = if_else(multiple == leg, "multiple", "single")) %>%
  select(participant, time, sex, include, sets, leg, lean.mass) %>%
  print()

# A tibble: 160 × 7
   participant time  sex    include sets     leg   lean.mass
   <chr>       <chr> <chr>  <chr>   <chr>    <chr>     <dbl>
 1 FP28        pre   female incl    multiple L          7059
 2 FP28        pre   female incl    single   R          7104
 3 FP40        pre   female incl    single   L          7190
 4 FP40        pre   female incl    multiple R          7506
 5 FP21        pre   male   incl    single   L         10281
 6 FP21        pre   male   incl    multiple R         10200
 7 FP34        pre   female incl    single   L          6014
 8 FP34        pre   female incl    multiple R          6009
 9 FP23        pre   male   incl    single   L          8242
10 FP23        pre   male   incl    multiple R          8685
# ℹ 150 more rows
…
