Quantitative Methods - Workshop, Assigments and Tutorials - Analyzing trials
…
    time:GROUP 
    time:GROUP 
    0.7202234 

An alternative model - the mixed effects model

Code

dat4 <- hypertrophy %>%
  select(PARTICIPANT, GROUP, VL_T1, VL_T2, VL_T3) %>%

  pivot_longer(names_to = "time", values_to = "thickness", cols = VL_T1:VL_T3) %>%
  print()

# A tibble: 93 x 4
   PARTICIPANT GROUP time  thickness
   <chr>       <chr> <chr>     <dbl>
 1 MRV001      WP    VL_T1     NA   
 2 MRV001      WP    VL_T2      2.99
 3 MRV001      WP    VL_T3      3.45
 4 MRV002      WP    VL_T1      2.93
 5 MRV002      WP    VL_T2      2.7 
 6 MRV002      WP    VL_T3      2.9 
 7 MRV003      GWP   VL_T1      3.34
 8 MRV003      GWP   VL_T2      3.34
 9 MRV003      GWP   VL_T3      3.55
10 MRV004      GWP   VL_T1      2.63
# ... with 83 more rows
…
