Quantitative Methods - Workshop, Assigments and Tutorials - Analyzing trials using mixed effects models
…
  select(participant, time, sex, sets, leg, lean.mass) %>%
  
  pivot_wider(names_from = time, 
              values_from = lean.mass)  %>%
  mutate(lbm.change = post - pre, 
         pre.mc = pre - mean(pre)) %>%
 
  print()

# A tibble: 68 x 8
   participant sex    sets     leg     pre  post lbm.change  pre.mc
   <chr>       <chr>  <chr>    <chr> <dbl> <dbl>      <dbl>   <dbl>
 1 FP28        female multiple L      7059  7273        214 -1537. 
 2 FP28        female single   R      7104  7227        123 -1492. 
 3 FP40        female single   L      7190  7192          2 -1406. 
 4 FP40        female multiple R      7506  7437        -69 -1090. 
 5 FP21        male   single   L     10281 10470        189  1685. 
 6 FP21        male   multiple R     10200 10819        619  1604. 
 7 FP34        female single   L      6014  6326        312 -2582. 
 8 FP34        female multiple R      6009  6405        396 -2587. 
 9 FP23        male   single   L      8242  8687        445  -354. 
10 FP23        male   multiple R      8685  8480       -205    88.7
# ... with 58 more rows
…
