Quantitative Methods - Workshop, Assigments and Tutorials – ws4-data-wrangling-tables
…
We can see that the first row returns a TRUE while the second row returns FALSE.

Using the filter function, we just add the expression as an argument in the function and all the rows that comes up TRUE will remain.

cyclingstudy %>%
        filter(weight.T1 > 75) %>%
        print()

# A tibble: 60 x 101
   subject group timepoint   age height.T1 weight.T1 sj.max cmj.max lac.125
     <dbl> <chr> <chr>     <dbl>     <dbl>     <dbl>  <dbl>   <dbl>   <dbl>
 1       1 INCR  pre          33       183      80.3   31.0    35.0    1.5 
 2       3 INCR  pre          39       193      98.1   26.8    28.8    1.17
 3       4 DECR  pre          37       175      79.2   29.2    30.8    0.88
 4       5 DECR  pre          31       176      88     31.2    25.8    1.06
 5       6 INCR  pre          33       168      79.6   34.2    35.3    1.27
 6       7 MIX   pre          42       180      77.6   30.1    33.0    0.85
 7       8 MIX   pre          26       179      75.5   32.8    33.2    0.93
 8       9 MIX   pre          41       185      82.4   22.7    22.4    1.48
 9      10 INCR  pre          35       187      75.6   29.7    31.1    0.93
10      13 DECR  pre          41       183      76     34.3    36      1.67
# ... with 50 more rows, and 92 more variables: lac.175 <dbl>, lac.225 <dbl>,
#   lac.250 <dbl>, lac.275 <dbl>, lac.300 <dbl>, lac.325 <dbl>, lac.350 <dbl>,
#   lac.375 <dbl>, VO2.125 <dbl>, VO2.175 <dbl>, VO2.225 <dbl>, VO2.250 <dbl>,
#   VO2.275 <dbl>, VO2.300 <dbl>, VO2.325 <dbl>, VO2.350 <dbl>, VO2.375 <dbl>,
#   VCO2.125 <dbl>, VCO2.175 <dbl>, VCO2.225 <dbl>, VCO2.250 <dbl>,
#   VCO2.275 <dbl>, VCO2.300 <dbl>, VCO2.325 <dbl>, VCO2.350 <dbl>,
#   VCO2.375 <dbl>, VE.125 <dbl>, VE.175 <dbl>, VE.225 <dbl>, VE.250 <dbl>, ...
…
We can similarly use OR (|) to select either weight greater than 80 or group INCR.

#| echo: true

cyclingstudy %>%
        filter(weight.T1 > 80 | group == "INCR") %>%
        print()

# A tibble: 46 x 101
   subject group timepoint   age height.T1 weight.T1 sj.max cmj.max lac.125
     <dbl> <chr> <chr>     <dbl>     <dbl>     <dbl>  <dbl>   <dbl>   <dbl>
 1       1 INCR  pre          33       183      80.3   31.0    35.0    1.5 
 2       3 INCR  pre          39       193      98.1   26.8    28.8    1.17
 3       5 DECR  pre          31       176      88     31.2    25.8    1.06
 4       6 INCR  pre          33       168      79.6   34.2    35.3    1.27
 5       9 MIX   pre          41       185      82.4   22.7    22.4    1.48
 6      10 INCR  pre          35       187      75.6   29.7    31.1    0.93
 7      14 MIX   pre          35       183      81.3   27.6    30.0    1.13
 8      15 INCR  pre          34       178      75.1   33.5    32.4    0.8 
 9      16 INCR  pre          27       178      77.8   32.9    33.7    0.94
10      18 DECR  pre          41       186     105.    33.5    33.7    1.75
# ... with 36 more rows, and 92 more variables: lac.175 <dbl>, lac.225 <dbl>,
#   lac.250 <dbl>, lac.275 <dbl>, lac.300 <dbl>, lac.325 <dbl>, lac.350 <dbl>,
#   lac.375 <dbl>, VO2.125 <dbl>, VO2.175 <dbl>, VO2.225 <dbl>, VO2.250 <dbl>,
#   VO2.275 <dbl>, VO2.300 <dbl>, VO2.325 <dbl>, VO2.350 <dbl>, VO2.375 <dbl>,
#   VCO2.125 <dbl>, VCO2.175 <dbl>, VCO2.225 <dbl>, VCO2.250 <dbl>,
#   VCO2.275 <dbl>, VCO2.300 <dbl>, VCO2.325 <dbl>, VCO2.350 <dbl>,
#   VCO2.375 <dbl>, VE.125 <dbl>, VE.175 <dbl>, VE.225 <dbl>, VE.250 <dbl>, ...

Notice that there are rows containing weights less than 80 from the INCR group.

Any logical statement can also be negated with ! indication NOT. This means we will get a vector of TRUE for any expression previously being FALSE. Notice the extra parentheses below.

#| echo: true

cyclingstudy %>%
        filter(!(weight.T1 > 80 & group == "INCR")) %>%
        print()

# A tibble: 71 x 101
   subject group timepoint   age height.T1 weight.T1 sj.max cmj.max lac.125
     <dbl> <chr> <chr>     <dbl>     <dbl>     <dbl>  <dbl>   <dbl>   <dbl>
 1       2 DECR  pre          32       174      71.4   31.6    33.8    1.19
 2       4 DECR  pre          37       175      79.2   29.2    30.8    0.88
 3       5 DECR  pre          31       176      88     31.2    25.8    1.06
 4       6 INCR  pre          33       168      79.6   34.2    35.3    1.27
 5       7 MIX   pre          42       180      77.6   30.1    33.0    0.85
 6       8 MIX   pre          26       179      75.5   32.8    33.2    0.93
 7       9 MIX   pre          41       185      82.4   22.7    22.4    1.48
 8      10 INCR  pre          35       187      75.6   29.7    31.1    0.93
 9      11 MIX   pre          34       168      55.8   33.2    30.8    0.62
10      13 DECR  pre          41       183      76     34.3    36      1.67
# ... with 61 more rows, and 92 more variables: lac.175 <dbl>, lac.225 <dbl>,
#   lac.250 <dbl>, lac.275 <dbl>, lac.300 <dbl>, lac.325 <dbl>, lac.350 <dbl>,
#   lac.375 <dbl>, VO2.125 <dbl>, VO2.175 <dbl>, VO2.225 <dbl>, VO2.250 <dbl>,
#   VO2.275 <dbl>, VO2.300 <dbl>, VO2.325 <dbl>, VO2.350 <dbl>, VO2.375 <dbl>,
#   VCO2.125 <dbl>, VCO2.175 <dbl>, VCO2.225 <dbl>, VCO2.250 <dbl>,
#   VCO2.275 <dbl>, VCO2.300 <dbl>, VCO2.325 <dbl>, VCO2.350 <dbl>,
#   VCO2.375 <dbl>, VE.125 <dbl>, VE.175 <dbl>, VE.225 <dbl>, VE.250 <dbl>, ...
…
Using pivot_longer we can change this data into a long format. Pivot wider needs information on the new variable names for values and names. Names are the column names thta will form a variable and values are the values contained in the cells of the old variables. We also need to specify what columns to make longer, notice that I select variables <from>:<to>.

cyclingstudy %>%
        filter(timepoint == "pre") %>%
        dplyr::select(subject, group, lac.125:lac.375) %>%
        pivot_longer(names_to = "watt", 
                     values_to = "lactate", 
                     cols = lac.125:lac.375) %>%
        print()

# A tibble: 180 x 4
   subject group watt    lactate
     <dbl> <chr> <chr>     <dbl>
 1       1 INCR  lac.125    1.5 
 2       1 INCR  lac.175    1.86
 3       1 INCR  lac.225    2.38
 4       1 INCR  lac.250    3.54
 5       1 INCR  lac.275    6.21
 6       1 INCR  lac.300   NA   
 7       1 INCR  lac.325   NA   
 8       1 INCR  lac.350   NA   
 9       1 INCR  lac.375   NA   
10       2 DECR  lac.125    1.19
# ... with 170 more rows

pivot_wider makes it easy to remove prefix and fix the data type of the names variable. Below we specify to remove lac. from all names and convert the new variable to numeric data.

cyclingstudy %>%
        filter(timepoint == "pre") %>%
        dplyr::select(subject, group, lac.125:lac.375) %>%
        pivot_longer(names_to = "watt", 
                     values_to = "lactate", 
                     cols = lac.125:lac.375, 
                     names_prefix = "lac.", 
                     names_transform = list(watt = as.numeric)) %>%
        print()

# A tibble: 180 x 4
   subject group  watt lactate
     <dbl> <chr> <dbl>   <dbl>
 1       1 INCR    125    1.5 
 2       1 INCR    175    1.86
 3       1 INCR    225    2.38
 4       1 INCR    250    3.54
 5       1 INCR    275    6.21
 6       1 INCR    300   NA   
 7       1 INCR    325   NA   
 8       1 INCR    350   NA   
 9       1 INCR    375   NA   
10       2 DECR    125    1.19
# ... with 170 more rows
…
