Quantitative Methods - Workshop, Assigments and Tutorials - Workshop 7: Hvordan i huleste løser jeg arbeidskrav 1? En oppsummering av emnet så langt
…
Steg 5: Beregne reliabilitet

Dette steget krever noe data wrangling, noe innsikt i hva som er reliabilitet og noe innsikt i hvordan du kan presentere resultater. For bakgrunn og diskusjon se kursnotatene kapittel 9.

Hele analysen er ikke større enn at den får plass i et quarto-dokument. I mer komplekse prosjekter kreves det iblant flere filer/skript for å håndtere data og funksjoner.

I quarto-dokumentet blir første steg å laste inn data. Du har plassert dataene i en mappen som heter «data», denne kan du nå gjennom en relativ adresse. For å laste inn en xlsx-fil trenger du pakken «readxl», for å laste inn en csv-fil vil «readr» eller funksjoner fra base R fungere. I eksemplet under laster vi inn en excelfil og lagrer den i et objekt som vi navngir «dat».

library(tidyverse); library(readxl)
dat <- read_excel("data/vo2max-g2.xlsx") %>%
        select(fp, time, vo2max = `VO2_max_ml/min`) %>%
        print()

# A tibble: 22 x 3
      fp time  vo2max
   <dbl> <chr>  <dbl>
 1     1 pre    4515 
 2     1 post   4372 
 3     2 pre    5042.
 4     2 post   5050.
 5     3 pre    3088 
 6     3 post   3130.
 7     4 pre    2828.
 8     4 post   2897 
 9     5 pre    4922 
10     5 post   4696.
# ... with 12 more rows
…
